…
    ## `summarise()` has grouped output by 'year', 'month'. You can override using the
    ## `.groups` argument.

``` r
print(LEW_envrday)
```

    ## # A tibble: 609 × 11
    ## # Groups:   year, month [20]
    ##     year month   day min_salinity max_salinity mean_salinity length_salinity
    ##    <dbl> <dbl> <int>        <dbl>        <dbl>         <dbl>           <int>
    ##  1  2023     5     1         13.7         14.8          14.2              96
    ##  2  2023     5     2         13.8         14.7          14.2              96
    ##  3  2023     5     3         13.8         14.7          14.3              96
    ##  4  2023     5     4         13.7         14.5          14.2              96
    ##  5  2023     5     5         13.9         14.5          14.2              96
    ##  6  2023     5     6         14           14.3          14.2              96
    ##  7  2023     5     7         13.7         14.4          14.1              96
    ##  8  2023     5     8         13.6         14.2          14.0              96
    ##  9  2023     5     9         13.7         14            13.8              96
    ## 10  2023     5    10         13.7         13.8          13.7              94
    ## # ℹ 599 more rows
    ## # ℹ 4 more variables: min_temp <dbl>, max_temp <dbl>, mean_temp <dbl>,
    ## #   length_temp <int>
…
