…
    ## `summarise()` has grouped output by 'year'. You can override using the
    ## `.groups` argument.

``` r
print(W5_NH_envrmonth)
```

    ## # A tibble: 221 × 10
    ## # Groups:   year [26]
    ##     year month min_salinity max_salinity mean_salinity length_salinity min_temp
    ##    <dbl> <dbl>        <dbl>        <dbl>         <dbl>           <int>    <dbl>
    ##  1  1997     7         12           24.5         19.7              499     19.1
    ##  2  1997     8         11.8         27.9         22.5             1430     19.2
    ##  3  1997     9         13.1         26.5         21.6             1312     14.3
    ##  4  1997    10         14.2         27.1         22.7             1327      6.9
    ##  5  1997    11          1.2         23.7         13.2             1307      0.8
    ##  6  1998     4          0.1         14.9          5.16             358      9.3
    ##  7  1998     5          0           21.8          6.00            1429     11.1
    ##  8  1998     6          0           22.1          4.45            1115     15.7
    ##  9  1998     7          0.1         24.4         11.7             1044     19.6
    ## 10  1998     8         13.4         29.9         25.9              873     20.2
    ## # ℹ 211 more rows
    ## # ℹ 3 more variables: max_temp <dbl>, mean_temp <dbl>, length_temp <int>
…
print(W5_NH_envryear)
```

    ## # A tibble: 26 × 7
    ##     year min_salinity max_salinity mean_salinity min_temp max_temp mean_temp
    ##    <dbl>        <dbl>        <dbl>         <dbl>    <dbl>    <dbl>     <dbl>
    ##  1  1997          1.2         27.9          20.0      0.8     26.6      15.6
    ##  2  1998          0           29.9          16.0      4.8     27        17.1
    ##  3  1999          1.7         30.8          20.8      2.7     28.4      16.5
    ##  4  2000          0           28.5          19.3     10.5     25.6      20.2
    ##  5  2001          1.1         33.9          24.2      4.1     28.3      17.7
    ##  6  2002          0.2         33.8          22.7     -0.2     29        17.0
    ##  7  2003          0.2         29.8          18.2      2.6     27.3      16.8
    ##  8  2004          0.1         29            16.8     -0.7     26.5      15.8
    ##  9  2005          0           30.5          14.3     -0.2     27.3      15.8
    ## 10  2006          0           28.9          13.1      4.1     28.1      16.1
    ## # ℹ 16 more rows
…
    ## `summarise()` has grouped output by 'year', 'month'. You can override using the
    ## `.groups` argument.

``` r
print(W5_NH_envrday)
```

    ## # A tibble: 5,610 × 11
    ## # Groups:   year, month [221]
    ##     year month   day min_salinity max_salinity mean_salinity length_salinity
    ##    <dbl> <dbl> <int>        <dbl>        <dbl>         <dbl>           <int>
    ##  1  1997     7    21         12.2         23            18.0              19
    ##  2  1997     7    22         12           23.2          18.9              48
    ##  3  1997     7    23         12           23.3          19.1              48
    ##  4  1997     7    24         12.2         23.5          19.3              48
    ##  5  1997     7    25         13           23.7          19.7              48
    ##  6  1997     7    26         13.4         24            19.8              48
    ##  7  1997     7    27         13.9         24.2          20.0              48
    ##  8  1997     7    28         14.4         24.3          20.1              48
    ##  9  1997     7    29         14.5         24.4          20.1              48
    ## 10  1997     7    30         14.5         24.5          20.2              48
    ## # ℹ 5,600 more rows
    ## # ℹ 4 more variables: min_temp <dbl>, max_temp <dbl>, mean_temp <dbl>,
    ## #   length_temp <int>
…
low_sal_stress_count <- W5_NH %>%
  mutate(year = year(datetime), 
         month = month(datetime), 
         day = day(datetime)) %>% 
  filter(low_sal_stress == 1) %>%  
  distinct(year, month, day) %>%  # remove dups
  group_by(year, month) %>%
  summarise(low_sal_stress = n(), .groups = "drop") # group all occurrences together by month rather than by numeric day

print(low_sal_stress_count)
```

    ## # A tibble: 184 × 3
    ##     year month low_sal_stress
    ##    <dbl> <dbl>          <int>
    ##  1  1997     8              2
    ##  2  1997    11             27
    ##  3  1998     4              8
    ##  4  1998     5             31
    ##  5  1998     6             22
    ##  6  1998     7             24
    ##  7  1998    10             17
    ##  8  1998    11              5
    ##  9  1999     4             12
    ## 10  1999     5             25
    ## # ℹ 174 more rows
…
