…
    ## `summarise()` has grouped output by 'year'. You can override using the `.groups` argument.

``` r
print(W1_TX_envrmonth)
```

    ## # A tibble: 180 × 10
    ## # Groups:   year [16]
    ##     year month min_salinity max_salinity mean_salinity length_salinity min_temp max_temp mean_temp length_temp
    ##    <dbl> <dbl>        <dbl>        <dbl>         <dbl>           <int>    <dbl>    <dbl>     <dbl>       <int>
    ##  1  2007     7          0.1          2.7          1.08            1978     24.9     31.2      28.8        1978
    ##  2  2007     8          0.2          3            1.49            2975     28.5     33.2      30.6        2975
    ##  3  2007     9          1.3          3.5          2.49            2710     27.7     31.4      29.4        2710
    ##  4  2007    10          2.8          3.8          3.16            2841     17.9     30        25.4        2841
    ##  5  2007    11          3.6          6.3          4.40            2879     11.6     24.6      19.8        2879
    ##  6  2007    12          5.3          6.7          6.06            2975     13       22.8      16.6        2975
    ##  7  2008     1          6.5          9.6          8.37            2975      9       18.3      13.0        2975
    ##  8  2008     2          8.5         10.2          9.39            2784     12.9     21.7      17.8        2784
    ##  9  2008     3          9.6         12.4         10.8             2972     12.9     24.2      19.0        2972
    ## 10  2008     4          9.9         14.6         12.9             2879     20.1     26.1      23.3        2879
    ## # ℹ 170 more rows
…
    ## `summarise()` has grouped output by 'year', 'month'. You can override using the `.groups` argument.

``` r
print(W1_TX_envrday)
```

    ## # A tibble: 5,148 × 11
    ## # Groups:   year, month [180]
    ##     year month   day min_salinity max_salinity mean_salinity length_salinity min_temp max_temp mean_temp length_temp
    ##    <dbl> <dbl> <int>        <dbl>        <dbl>         <dbl>           <int>    <dbl>    <dbl>     <dbl>       <int>
    ##  1  2007     7    11          0.2          0.5         0.367              58     29.3     31        30.3          58
    ##  2  2007     7    12          0.3          0.4         0.345              96     29.2     30.9      30.1          96
    ##  3  2007     7    13          0.3          0.6         0.389              96     29.6     31        30.3          96
    ##  4  2007     7    14          0.5          0.9         0.675              96     29.3     30.4      29.8          96
    ##  5  2007     7    15          0.6          1.6         0.979              96     29.2     30.2      29.6          96
    ##  6  2007     7    16          0.8          2.3         1.51               96     28.6     29.3      29.1          96
    ##  7  2007     7    17          1.7          2.3         2.01               96     28.4     29.3      28.8          96
    ##  8  2007     7    18          1.3          2           1.78               96     27.7     28.5      28.0          96
    ##  9  2007     7    19          1.3          2.7         2.19               96     27.1     28.2      27.6          96
    ## 10  2007     7    20          1.7          2.1         1.84               96     27.4     27.7      27.6          96
    ## # ℹ 5,138 more rows
…
low_sal_stress_count <- W1_TX %>%
  mutate(year = year(datetime), 
         month = month(datetime), 
         day = day(datetime)) %>% 
  filter(low_sal_stress == 1) %>%  
  distinct(year, month, day) %>%  # remove dups
  group_by(year, month) %>%
  summarise(low_sal_stress = n(), .groups = "drop") # group all occurrences together by month rather than by numeric day

print(low_sal_stress_count)
```

    ## # A tibble: 77 × 3
    ##     year month low_sal_stress
    ##    <dbl> <dbl>          <int>
    ##  1  2007     7             21
    ##  2  2007     8             31
    ##  3  2007     9             29
    ##  4  2007    10             30
    ##  5  2007    11             30
    ##  6  2007    12             31
    ##  7  2008     1             31
    ##  8  2008     2             29
    ##  9  2008     3             31
    ## 10  2008     4              9
    ## # ℹ 67 more rows
…
high_sal_stress_count <- W1_TX %>%
  mutate(year = year(datetime), 
         month = month(datetime), 
         day = day(datetime)) %>% 
  filter(high_sal_stress == 1) %>%  
  distinct(year, month, day) %>%  # remove dups
  group_by(year, month) %>%
  summarise(high_sal_stress = n(), .groups = "drop") # group all occurrences together by month rather than by numeric day

print(high_sal_stress_count)
```

    ## # A tibble: 40 × 3
    ##     year month high_sal_stress
    ##    <dbl> <dbl>           <int>
    ##  1  2009     5               6
    ##  2  2009     6              26
    ##  3  2009     7              31
    ##  4  2009     8              31
    ##  5  2009     9              29
    ##  6  2009    10              20
    ##  7  2009    11              15
    ##  8  2011    10              27
    ##  9  2011    11              30
    ## 10  2011    12              31
    ## # ℹ 30 more rows
…
high_temp_stress_count <- W1_TX %>%
  mutate(year = year(datetime), 
         month = month(datetime), 
         day = day(datetime)) %>% 
  filter(high_temp_stress == 1) %>%  
  distinct(year, month, day) %>%  # remove dups
  group_by(year, month) %>%
  summarise(high_temp_stress = n(), .groups = "drop") # group all occurrences together by month rather than by numeric day

print(high_temp_stress_count)
```

    ## # A tibble: 87 × 3
    ##     year month high_temp_stress
    ##    <dbl> <dbl>            <int>
    ##  1  2007     7               19
    ##  2  2007     8               31
    ##  3  2007     9               29
    ##  4  2007    10               15
    ##  5  2008     5               10
    ##  6  2008     6               30
    ##  7  2008     7               29
    ##  8  2008     8               29
    ##  9  2008     9                6
    ## 10  2009     5               10
    ## # ℹ 77 more rows
…
