…
    ## `summarise()` has grouped output by 'year'. You can override using the `.groups` argument.

``` r
print(W2_LA_envrmonth)
```

    ## # A tibble: 178 × 10
    ## # Groups:   year [16]
    ##     year month min_salinity max_salinity mean_salinity length_salinity min_temp max_temp mean_temp length_temp
    ##    <dbl> <dbl>        <dbl>        <dbl>         <dbl>           <int>    <dbl>    <dbl>     <dbl>       <int>
    ##  1  2007    10          8.1           25         16.5              570     15.7     28.8      23.6         570
    ##  2  2007    11         10             24         15.6              719     13.2     23.2      19.0         719
    ##  3  2007    12          7.2           20         15.8              461     11       23.8      18.0         461
    ##  4  2008     1          2.8           18         12.3              498      6.9     18.4      12.2         498
    ##  5  2008     2          1.2           23         11.6              696     11.4     21.9      17.2         696
    ##  6  2008     3          2.8           26         10.5              739     11.2     24.6      18.6         739
    ##  7  2008     4          2.2           21         11.3              715     16       27.8      23.4         715
    ##  8  2008     5          0.6           13          5.02             744     22.1     31        26.4         744
    ##  9  2008     6          1             12          4.90             720     28.1     32.2      30.0         720
    ## 10  2008     7          0.6           12          5.03             744     28.2     32.8      30.5         744
    ## # ℹ 168 more rows
…
    ## `summarise()` has grouped output by 'year', 'month'. You can override using the `.groups` argument.

``` r
print(W2_LA_envrday)
```

    ## # A tibble: 4,787 × 11
    ## # Groups:   year, month [178]
    ##     year month   day min_salinity max_salinity mean_salinity length_salinity min_temp max_temp mean_temp length_temp
    ##    <dbl> <dbl> <int>        <dbl>        <dbl>         <dbl>           <int>    <dbl>    <dbl>     <dbl>       <int>
    ##  1  2007    10     1           16           20          17.8              18     26.4     28        27.4          18
    ##  2  2007    10     2           16           20          17.7              24     26.4     28        27.3          24
    ##  3  2007    10     3           16           19          17.6              24     26.3     27.7      27.0          24
    ##  4  2007    10     4           15           16          15.2               5     27.1     27.6      27.4           5
    ##  5  2007    10     5           17           24          21.3              19     26.9     28.5      27.3          19
    ##  6  2007    10     6           18           21          20.1              24     27.6     28.8      28.0          24
    ##  7  2007    10     7           17           22          20.2              24     27.6     28.7      28.0          24
    ##  8  2007    10     8           18           22          19.6              24     27.5     28.6      27.9          24
    ##  9  2007    10     9           18           19          18.9              24     27.4     28.7      27.9          24
    ## 10  2007    10    10           19           19          19                 5     28.1     28.4      28.3           5
    ## # ℹ 4,777 more rows
…
low_sal_stress_count <- W2_LA %>%
  mutate(year = year(datetime), 
         month = month(datetime), 
         day = day(datetime)) %>% 
  filter(low_sal_stress == 1) %>%  
  distinct(year, month, day) %>%  # remove dups
  group_by(year, month) %>%
  summarise(low_sal_stress = n(), .groups = "drop") # group all occurrences together by month rather than by numeric day

print(low_sal_stress_count)
```

    ## # A tibble: 170 × 3
    ##     year month low_sal_stress
    ##    <dbl> <dbl>          <int>
    ##  1  2007    10              8
    ##  2  2007    11              6
    ##  3  2007    12              4
    ##  4  2008     1             17
    ##  5  2008     2             23
    ##  6  2008     3             28
    ##  7  2008     4             24
    ##  8  2008     5             31
    ##  9  2008     6             30
    ## 10  2008     7             31
    ## # ℹ 160 more rows
…
high_temp_stress_count <- W2_LA %>%
  mutate(year = year(datetime), 
         month = month(datetime), 
         day = day(datetime)) %>% 
  filter(high_temp_stress == 1) %>%  
  distinct(year, month, day) %>%  # remove dups
  group_by(year, month) %>%
  summarise(high_temp_stress = n(), .groups = "drop") # group all occurrences together by month rather than by numeric day

print(high_temp_stress_count)
```

    ## # A tibble: 83 × 3
    ##     year month high_temp_stress
    ##    <dbl> <dbl>            <int>
    ##  1  2007    10                6
    ##  2  2008     5               14
    ##  3  2008     6               30
    ##  4  2008     7               31
    ##  5  2008     8               29
    ##  6  2008     9               11
    ##  7  2009     5               16
    ##  8  2009     6               29
    ##  9  2009     7               14
    ## 10  2009     8               31
    ## # ℹ 73 more rows
…
