…
    ## `summarise()` has grouped output by 'year'. You can override using the
    ## `.groups` argument.

``` r
print(W3_FL_envrmonth_sal)
```

    ## # A tibble: 187 × 6
    ## # Groups:   year [20]
    ##     year month min_salinity max_salinity mean_salinity length_salinity
    ##    <dbl> <dbl>        <dbl>        <dbl>         <dbl>           <int>
    ##  1  2005     6        19.3          34.7          31.4             407
    ##  2  2005     7        12.0          36.3          25.0            1482
    ##  3  2005     8        16.8          36.7          29.6            1487
    ##  4  2005     9        18.6          35.5          29.9            1440
    ##  5  2005    10        12.0          33.9          27.0            1488
    ##  6  2005    11         9.77         35.2          26.2             815
    ##  7  2005    12         6.37         35.7          26.5            1488
    ##  8  2006     1        12.5          33.9          28.8            1488
    ##  9  2006     2        15.7          33.4          27.7            1344
    ## 10  2006     3        20.5          34.3          31.2            1488
    ## # ℹ 177 more rows

``` r
print(W3_FL_envrmonth_temp)
```

    ## # A tibble: 191 × 6
    ## # Groups:   year [20]
    ##     year month min_temp max_temp mean_temp length_temp
    ##    <dbl> <dbl>    <dbl>    <dbl>     <dbl>       <int>
    ##  1  2005     6     27.2     29.8      28.3         407
    ##  2  2005     7     27.2     32.1      29.5        1482
    ##  3  2005     8     28.6     32.4      30.2        1487
    ##  4  2005     9     25.8     31.3      28.1        1440
    ##  5  2005    10     18.1     29.5      25.1        1488
    ##  6  2005    11     15.2     23.4      19.0         815
    ##  7  2005    12     11.4     18.7      15.0        1488
    ##  8  2006     1     11.8     18.2      15.3        1488
    ##  9  2006     2     10.9     17.9      14.8        1344
    ## 10  2006     3     14.2     21.2      17.5        1488
    ## # ℹ 181 more rows
…
    ## `summarise()` has grouped output by 'year', 'month'. You can override using the
    ## `.groups` argument.

``` r
print(W3_FL_envrday_sal)
```

    ## # A tibble: 5,096 × 7
    ## # Groups:   year, month [187]
    ##     year month   day min_salinity max_salinity mean_salinity length_salinity
    ##    <dbl> <dbl> <int>        <dbl>        <dbl>         <dbl>           <int>
    ##  1  2005     6    22         29.2         34.6          33.0              23
    ##  2  2005     6    23         30.4         34.7          33.4              48
    ##  3  2005     6    24         32.1         34.4          33.4              48
    ##  4  2005     6    25         32.6         34.6          33.6              48
    ##  5  2005     6    26         32.9         34.6          33.6              48
    ##  6  2005     6    27         30.9         34.2          32.7              48
    ##  7  2005     6    28         27.2         34.1          30.6              48
    ##  8  2005     6    29         23.3         33.1          28.6              48
    ##  9  2005     6    30         19.3         34.2          24.7              48
    ## 10  2005     7     1         16.1         34.9          22.8              48
    ## # ℹ 5,086 more rows
…
    ## `summarise()` has grouped output by 'year', 'month'. You can override using the
    ## `.groups` argument.

``` r
print(W3_FL_envrday_temp)
```

    ## # A tibble: 5,253 × 7
    ## # Groups:   year, month [191]
    ##     year month   day min_temp max_temp mean_temp length_temp
    ##    <dbl> <dbl> <int>    <dbl>    <dbl>     <dbl>       <int>
    ##  1  2005     6    22     28.2     29.3      28.7          23
    ##  2  2005     6    23     27.6     29.8      28.6          48
    ##  3  2005     6    24     27.6     29.3      28.5          48
    ##  4  2005     6    25     27.2     28.3      27.8          48
    ##  5  2005     6    26     27.5     29.8      28.4          48
    ##  6  2005     6    27     28.8     29.4      29.1          48
    ##  7  2005     6    28     27.8     28.8      28.4          48
    ##  8  2005     6    29     27.5     28.2      27.9          48
    ##  9  2005     6    30     27.3     28.5      27.8          48
    ## 10  2005     7     1     27.6     29.2      28.3          48
    ## # ℹ 5,243 more rows
…
high_sal_stress_count <- W3_FL_sal %>%
  mutate(year = year(datetime), 
         month = month(datetime), 
         day = day(datetime)) %>% 
  filter(high_sal_stress == 1) %>%  
  distinct(year, month, day) %>%  # remove dups
  group_by(year, month) %>%
  summarise(high_sal_stress = n(), .groups = "drop") # group all occurrences together by month rather than by numeric day

print(high_sal_stress_count)
```

    ## # A tibble: 138 × 3
    ##     year month high_sal_stress
    ##    <dbl> <dbl>           <int>
    ##  1  2005     7              11
    ##  2  2005     8              20
    ##  3  2005     9               4
    ##  4  2005    11               1
    ##  5  2005    12              10
    ##  6  2006     5              20
    ##  7  2006     6              17
    ##  8  2006     7              31
    ##  9  2006     8              31
    ## 10  2006     9              18
    ## # ℹ 128 more rows
…
high_temp_stress_count <- W3_FL_temp %>%
  mutate(year = year(datetime), 
         month = month(datetime), 
         day = day(datetime)) %>% 
  filter(high_temp_stress == 1) %>%  
  distinct(year, month, day) %>%  # remove dups
  group_by(year, month) %>%
  summarise(high_temp_stress = n(), .groups = "drop") # group all occurrences together by month rather than by numeric day

print(high_temp_stress_count)
```

    ## # A tibble: 83 × 3
    ##     year month high_temp_stress
    ##    <dbl> <dbl>            <int>
    ##  1  2005     6                9
    ##  2  2005     7               31
    ##  3  2005     8               31
    ##  4  2005     9               21
    ##  5  2005    10                6
    ##  6  2006     5                7
    ##  7  2006     6               15
    ##  8  2006     7               31
    ##  9  2006     8               31
    ## 10  2006     9               14
    ## # ℹ 73 more rows
…
