…
    ## `summarise()` has grouped output by 'year'. You can override using the
    ## `.groups` argument.

``` r
print(W4_VA_envrmonth)
```

    ## # A tibble: 115 × 10
    ## # Groups:   year [12]
    ##     year month min_salinity max_salinity mean_salinity length_salinity min_temp
    ##    <dbl> <dbl>        <dbl>        <dbl>         <dbl>           <int>    <dbl>
    ##  1  2008    11          4.3          9.5         6.68              596      6.9
    ##  2  2008    12          0.3          8.3         2.98              687      6  
    ##  3  2009     1          0.2          3.8         1.24              571      2.4
    ##  4  2009     2          0.8          5           2.71              557      3  
    ##  5  2009     3          0.2          8.2         2.48              648      4.2
    ##  6  2009     4          0.1          2.4         0.405             566     12.5
    ##  7  2009     5          0.1          1.1         0.272             318     19.8
    ##  8  2009     6          0.1          1.2         0.360             538     24.5
    ##  9  2009     7          5.5          5.7         5.59              160     24.3
    ## 10  2009    11          0.1         10.7         2.86              644     11  
    ## # ℹ 105 more rows
    ## # ℹ 3 more variables: max_temp <dbl>, mean_temp <dbl>, length_temp <int>
…
    ## `summarise()` has grouped output by 'year', 'month'. You can override using the
    ## `.groups` argument.

``` r
print(W4_VA_envrday)
```

    ## # A tibble: 3,296 × 11
    ## # Groups:   year, month [115]
    ##     year month   day min_salinity max_salinity mean_salinity length_salinity
    ##    <dbl> <dbl> <int>        <dbl>        <dbl>         <dbl>           <int>
    ##  1  2008    11     1          4.5          7.1          5.78              23
    ##  2  2008    11     2          5.1          8.2          6.23              23
    ##  3  2008    11     3          5.9          8.4          7.03              23
    ##  4  2008    11     4          5.6          8.2          6.69              18
    ##  5  2008    11     5          7            8.1          7.36              18
    ##  6  2008    11     6          7.4          8            7.74               9
    ##  7  2008    11     7          5.7          7.5          6.74              23
    ##  8  2008    11     8          6.2          8.6          7.26              20
    ##  9  2008    11     9          5.9          8.5          7.31               8
    ## 10  2008    11    10          5.8          8.5          7.18              21
    ## # ℹ 3,286 more rows
    ## # ℹ 4 more variables: min_temp <dbl>, max_temp <dbl>, mean_temp <dbl>,
    ## #   length_temp <int>
…
low_sal_stress_count <- W4_VA %>%
  mutate(year = year(datetime), 
         month = month(datetime), 
         day = day(datetime)) %>% 
  filter(low_sal_stress == 1) %>%  
  distinct(year, month, day) %>%  # remove dups
  group_by(year, month) %>%
  summarise(low_sal_stress = n(), .groups = "drop") # group all occurrences together by month rather than by numeric day

print(low_sal_stress_count)
```

    ## # A tibble: 115 × 3
    ##     year month low_sal_stress
    ##    <dbl> <dbl>          <int>
    ##  1  2008    11             29
    ##  2  2008    12             31
    ##  3  2009     1             28
    ##  4  2009     2             27
    ##  5  2009     3             31
    ##  6  2009     4             30
    ##  7  2009     5             16
    ##  8  2009     6             26
    ##  9  2009     7              8
    ## 10  2009    11             30
    ## # ℹ 105 more rows
…
high_temp_stress_count <- W4_VA %>%
  mutate(year = year(datetime), 
         month = month(datetime), 
         day = day(datetime)) %>% 
  filter(high_temp_stress == 1) %>%  
  distinct(year, month, day) %>%  # remove dups
  group_by(year, month) %>%
  summarise(high_temp_stress = n(), .groups = "drop") # group all occurrences together by month rather than by numeric day

print(high_temp_stress_count)
```

    ## # A tibble: 37 × 3
    ##     year month high_temp_stress
    ##    <dbl> <dbl>            <int>
    ##  1  2009     6                4
    ##  2  2010     6               24
    ##  3  2010     7               31
    ##  4  2010     8               31
    ##  5  2010     9                6
    ##  6  2011     5                2
    ##  7  2011     6               21
    ##  8  2011     7               31
    ##  9  2011     8               27
    ## 10  2011     9                2
    ## # ℹ 27 more rows
…
