…
    ## `summarise()` has grouped output by 'year'. You can override using the
    ## `.groups` argument.

``` r
print(W6_ME_envrmonth_sal)
```

    ## # A tibble: 46 × 6
    ## # Groups:   year [7]
    ##     year month min_salinity max_salinity mean_salinity length_salinity
    ##    <dbl> <dbl>        <dbl>        <dbl>         <dbl>           <int>
    ##  1  2015     9        28.1          31.7          31.4             128
    ##  2  2015    10        25.5          31.4          29.5             724
    ##  3  2015    11        24.5          30.7          28.9             543
    ##  4  2016     4         0.02         29.0          28.0             275
    ##  5  2016     5        27.6          30.3          29.1             744
    ##  6  2016     6         0.15         30.8          29.9             720
    ##  7  2016     7         0.4          31.4          30.8             744
    ##  8  2016     8         0.35         31.7          31.4             744
    ##  9  2016     9         0.3          32.2          31.8             720
    ## 10  2016    10        31.5          32.3          32.1             744
    ## # ℹ 36 more rows

``` r
print(W6_ME_envrmonth_temp)
```

    ## # A tibble: 46 × 6
    ## # Groups:   year [7]
    ##     year month min_temp max_temp mean_temp length_temp
    ##    <dbl> <dbl>    <dbl>    <dbl>     <dbl>       <int>
    ##  1  2015     9    16.9      19.1     17.8          128
    ##  2  2015    10     9.13     17.3     13.0          724
    ##  3  2015    11     6.5      11.6      9.46         543
    ##  4  2016     4     7.55     17.0      9.51         275
    ##  5  2016     5     8.93     18.4     12.5          744
    ##  6  2016     6    13.2      22.0     17.6          720
    ##  7  2016     7    17.6      24.3     21.2          744
    ##  8  2016     8    20.3      24.3     22.0          744
    ##  9  2016     9    16.0      22.9     19.3          720
    ## 10  2016    10     9.8      16.7     14.1          744
    ## # ℹ 36 more rows
…
    ## `summarise()` has grouped output by 'year', 'month'. You can override using the
    ## `.groups` argument.

``` r
print(W6_ME_envrday)
```

    ## # A tibble: 1,128 × 11
    ## # Groups:   year, month [46]
    ##     year month   day min_salinity max_salinity mean_salinity length_salinity
    ##    <dbl> <dbl> <int>        <dbl>        <dbl>         <dbl>           <int>
    ##  1  2015     9    25         31.4         31.6          31.5               8
    ##  2  2015     9    26         31.4         31.7          31.5              24
    ##  3  2015     9    27         31.4         31.7          31.6              24
    ##  4  2015     9    28         31.4         31.7          31.6              24
    ##  5  2015     9    29         31.5         31.7          31.6              24
    ##  6  2015     9    30         28.1         31.5          30.4              24
    ##  7  2015    10     1         28.1         30.5          29.6              24
    ##  8  2015    10     2         27.4         30.2          29.2              24
    ##  9  2015    10     3         26.8         29.9          28.8              24
    ## 10  2015    10     4         26.4         29.4          28.3              24
    ## # ℹ 1,118 more rows
    ## # ℹ 4 more variables: min_temp <dbl>, max_temp <dbl>, mean_temp <dbl>,
    ## #   length_temp <int>
…
