…
    ## `summarise()` has grouped output by 'year', 'month'. You can override using the
    ## `.groups` argument.

``` r
print(YRK_envrday)
```

    ## # A tibble: 519 × 11
    ## # Groups:   year, month [17]
    ##     year month   day min_salinity max_salinity mean_salinity length_salinity
    ##    <dbl> <dbl> <int>        <dbl>        <dbl>         <dbl>           <int>
    ##  1  2023     8     1         22.8         23.6          23.2              57
    ##  2  2023     8     2         22.9         23.4          23.2              96
    ##  3  2023     8     3         23.0         23.4          23.2              96
    ##  4  2023     8     4         22.6         23.3          22.9              96
    ##  5  2023     8     5         22.7         23.2          23.0              96
    ##  6  2023     8     6         22.6         23.0          22.8              96
    ##  7  2023     8     7         22.6         23.0          22.8              96
    ##  8  2023     8     8         22.5         23.3          22.8              96
    ##  9  2023     8     9         22.2         23.7          23.0              96
    ## 10  2023     8    10         22.1         23.8          22.8              96
    ## # ℹ 509 more rows
    ## # ℹ 4 more variables: min_temp <dbl>, max_temp <dbl>, mean_temp <dbl>,
    ## #   length_temp <int>
…
